[gd_scene load_steps=4 format=2]

[ext_resource path="res://Assets/SpriteFrame/AltarAnim.tres" type="SpriteFrames" id=1]
[ext_resource path="res://Scripts/Altar.gd" type="Script" id=2]

[sub_resource type="RectangleShape2D" id=1]
extents = Vector2( 5.06926, 3.28339 )

[node name="Altar_None" type="Area2D"]
collision_layer = 8
script = ExtResource( 2 )

[node name="AltarSprite" type="AnimatedSprite" parent="."]
frames = ExtResource( 1 )
animation = "None"

[node name="CollisionShape2D" type="CollisionShape2D" parent="."]
position = Vector2( -0.0417137, 4.74004 )
shape = SubResource( 1 )
