[gd_scene load_steps=4 format=2]

[ext_resource path="res://Scripts/Dialogue.gd" type="Script" id=1]
[ext_resource path="res://Assets/Tileset/altar.tres" type="TileSet" id=2]
[ext_resource path="res://Assets/Fonts/Top Bar Font.tres" type="DynamicFont" id=3]

[node name="Extra_Big_Dialogue" type="Control"]
script = ExtResource( 1 )
__meta__ = {
"_edit_use_anchors_": false
}

[node name="TileMap" type="TileMap" parent="."]
tile_set = ExtResource( 2 )
cell_size = Vector2( 16, 16 )
format = 1
tile_data = PoolIntArray( -65546, 2, 0, -65545, 2, 2, -65544, 2, 1, -65543, 2, 1, -65542, 2, 2, -65541, 2, 2, -65540, 2, 1, -65539, 2, 1, -65538, 2, 1, -65537, 2, 1, -131072, 2, 1, -131071, 2, 1, -131070, 2, 2, -131069, 2, 1, -131068, 2, 2, -131067, 2, 2, -131066, 2, 1, -131065, 2, 1, -131064, 2, 2, -131063, 2, 2, -131062, 2, 2, -131061, 2, 2, -131060, 2, 2, -131059, 2, 1, -131058, 2, 2, -131057, 2, 2, -131056, 2, 3, -10, 2, 65536, -9, 2, 65537, -8, 2, 65537, -7, 2, 65537, -6, 2, 65537, -5, 2, 65537, -4, 2, 65537, -3, 2, 65537, -2, 2, 65537, -1, 2, 65537, -65536, 2, 65537, -65535, 2, 65537, -65534, 2, 65537, -65533, 2, 65537, -65532, 2, 65537, -65531, 2, 65537, -65530, 2, 65537, -65529, 2, 65537, -65528, 2, 65537, -65527, 2, 65537, -65526, 2, 65537, -65525, 2, 65537, -65524, 2, 65537, -65523, 2, 65537, -65522, 2, 65537, -65521, 2, 65537, -65520, 2, 65539, 65526, 2, 65536, 65527, 2, 65537, 65528, 2, 65537, 65529, 2, 65537, 65530, 2, 65537, 65531, 2, 65537, 65532, 2, 65537, 65533, 2, 65537, 65534, 2, 65537, 65535, 2, 65537, 0, 2, 65537, 1, 2, 65537, 2, 2, 65537, 3, 2, 65537, 4, 2, 65537, 5, 2, 65537, 6, 2, 65537, 7, 2, 65537, 8, 2, 65537, 9, 2, 65537, 10, 2, 65537, 11, 2, 65537, 12, 2, 65537, 13, 2, 65537, 14, 2, 65537, 15, 2, 65537, 16, 2, 65539, 131062, 2, 65536, 131063, 2, 65537, 131064, 2, 65537, 131065, 2, 65537, 131066, 2, 65537, 131067, 2, 65537, 131068, 2, 65537, 131069, 2, 65537, 131070, 2, 65537, 131071, 2, 65537, 65536, 2, 65537, 65537, 2, 65537, 65538, 2, 65537, 65539, 2, 65537, 65540, 2, 65537, 65541, 2, 65537, 65542, 2, 65537, 65543, 2, 65537, 65544, 2, 65537, 65545, 2, 65537, 65546, 2, 65537, 65547, 2, 65537, 65548, 2, 65537, 65549, 2, 65537, 65550, 2, 65537, 65551, 2, 65537, 65552, 2, 65539, 196598, 2, 131072, 196599, 2, 131074, 196600, 2, 131073, 196601, 2, 131074, 196602, 2, 131074, 196603, 2, 131074, 196604, 2, 131073, 196605, 2, 131074, 196606, 2, 131074, 196607, 2, 131074, 131072, 2, 131074, 131073, 2, 131074, 131074, 2, 131073, 131075, 2, 131073, 131076, 2, 131074, 131077, 2, 131074, 131078, 2, 131073, 131079, 2, 131073, 131080, 2, 131073, 131081, 2, 131074, 131082, 2, 131074, 131083, 2, 131073, 131084, 2, 131074, 131085, 2, 131073, 131086, 2, 131074, 131087, 2, 131074, 131088, 2, 131075 )

[node name="RichTextLabel" type="RichTextLabel" parent="."]
margin_left = -144.0
margin_top = -16.0
margin_right = 256.0
margin_bottom = 32.0
custom_fonts/normal_font = ExtResource( 3 )
bbcode_enabled = true
bbcode_text = "Lorem Ipsum Lorem Ipsum Lorem Ipsum Lorem Ipsum Lorem Ipsum Lorem Ipsum Lorem Ipsum Lorem Ipsum Lorem Ipsum Lorem Ipsum Lorem Ipsum Lorem Ipsum Lorem Ipsum Lorem Ipsum Lorem Ipsum"
text = "Lorem Ipsum Lorem Ipsum Lorem Ipsum Lorem Ipsum Lorem Ipsum Lorem Ipsum Lorem Ipsum Lorem Ipsum Lorem Ipsum Lorem Ipsum Lorem Ipsum Lorem Ipsum Lorem Ipsum Lorem Ipsum Lorem Ipsum"
__meta__ = {
"_edit_use_anchors_": false
}
