[gd_scene load_steps=4 format=2]

[ext_resource path="res://Assets/SpriteFrame/ColTile_Color.tres" type="SpriteFrames" id=1]
[ext_resource path="res://Scripts/Colored_Tile.gd" type="Script" id=2]

[sub_resource type="RectangleShape2D" id=1]
extents = Vector2( 8, 8 )

[node name="ColTile_GT" type="StaticBody2D"]
modulate = Color( 0.588235, 1, 0.8, 0.392157 )
z_index = -1
script = ExtResource( 2 )

[node name="CollisionShape2D" type="CollisionShape2D" parent="."]
visible = false
shape = SubResource( 1 )
disabled = true

[node name="AnimatedSprite" type="AnimatedSprite" parent="."]
frames = ExtResource( 1 )
animation = "GT"
